\relax 
\providecommand\HyperFirstAtBeginDocument{\AtBeginDocument}
\HyperFirstAtBeginDocument{\ifx\hyper@anchor\@undefined
\global\let\oldcontentsline\contentsline
\gdef\contentsline#1#2#3#4{\oldcontentsline{#1}{#2}{#3}}
\global\let\oldnewlabel\newlabel
\gdef\newlabel#1#2{\newlabelxx{#1}#2}
\gdef\newlabelxx#1#2#3#4#5#6{\oldnewlabel{#1}{{#2}{#3}}}
\AtEndDocument{\ifx\hyper@anchor\@undefined
\let\contentsline\oldcontentsline
\let\newlabel\oldnewlabel
\fi}
\fi}
\global\let\hyper@last\relax 
\gdef\HyperFirstAtBeginDocument#1{#1}
\providecommand\HyField@AuxAddToFields[1]{}
\citation{welinder2010caltech}
\citation{wah2011caltech}
\citation{berg2014birdsnap}
\citation{khosla2011novel}
\citation{parkhi2012cats}
\citation{nilsback2008automated}
\citation{angelova2013image}
\citation{stark2011fine}
\citation{maji2013fine}
\citation{wah2011multiclass}
\citation{berg2014birdsnap}
\citation{vedaldi2014understanding}
\citation{krause2015fine}
\citation{xu2015augmenting}
\citation{deng2013fine}
\citation{chai2013symbiotic}
\citation{branson2014bird}
\citation{lin2015bilinear}
\citation{wang2015multiple}
\citation{berg2013poof}
\citation{berg2013you}
\citation{berg2014birdsnap}
\citation{kumar2012leafsnap}
\citation{branson2014ignorant}
\citation{van2015building}
\citation{krizhevsky2012imagenet}
\@writefile{toc}{\contentsline {section}{\numberline {1}\hskip -1em.\nobreakspace  {}Introduction}{1}{section.1}}
\newlabel{sec:intro}{{1}{1}{\hskip -1em.~Introduction\relax }{section.1}{}}
\@writefile{brf}{\backcite{welinder2010caltech,wah2011caltech,berg2014birdsnap}{{1}{1}{section.1}}}
\@writefile{brf}{\backcite{khosla2011novel,parkhi2012cats}{{1}{1}{section.1}}}
\@writefile{brf}{\backcite{nilsback2008automated,angelova2013image}{{1}{1}{section.1}}}
\@writefile{brf}{\backcite{stark2011fine,maji2013fine}{{1}{1}{section.1}}}
\@writefile{brf}{\backcite{wah2011multiclass,berg2014birdsnap,vedaldi2014understanding,krause2015fine,xu2015augmenting}{{1}{1}{section.1}}}
\@writefile{lof}{\contentsline {figure}{\numberline {1}{\ignorespaces Overview of the proposed approach. We propose to classify fine-grained categories by modeling the subtle difference from specific object parts. Beyond classification results, the proposed PS-CNN architecture also offers human-understandable instructions on how to classify highly similar object categories explicitly.}}{1}{figure.1}}
\newlabel{fig:title}{{1}{1}{Overview of the proposed approach. We propose to classify fine-grained categories by modeling the subtle difference from specific object parts. Beyond classification results, the proposed PS-CNN architecture also offers human-understandable instructions on how to classify highly similar object categories explicitly}{figure.1}{}}
\@writefile{brf}{\backcite{deng2013fine,chai2013symbiotic,branson2014bird,lin2015bilinear,wang2015multiple}{{1}{1}{figure.1}}}
\@writefile{brf}{\backcite{berg2013poof,berg2013you,berg2014birdsnap}{{1}{1}{figure.1}}}
\@writefile{brf}{\backcite{kumar2012leafsnap,branson2014ignorant,van2015building}{{1}{1}{figure.1}}}
\citation{rosch1976basic}
\citation{berg2013poof}
\citation{chai2013symbiotic}
\citation{maji2014part}
\citation{zhang2014part}
\citation{zhang2014fused}
\citation{wah2011caltech}
\citation{maji2013fine}
\citation{wah2011caltech}
\citation{bo2010kernel}
\citation{sanchez2011fisher}
\citation{krizhevsky2012imagenet}
\citation{szegedy2014going}
\citation{simonyan2014very}
\citation{branson2014bird}
\citation{gavves2015local}
\citation{berg2013poof}
\citation{zhang2014panda}
\citation{maji2014part}
\citation{zhang2014part}
\citation{gkioxari2015actions}
\citation{zhu2015deepm}
\citation{branson2010visual}
\citation{deng2013fine}
\citation{wah2014similarity}
\citation{zhang2014part}
\citation{lin2015bilinear}
\citation{zhang2014part}
\citation{zhang2014part}
\citation{lin2015bilinear}
\@writefile{brf}{\backcite{krizhevsky2012imagenet}{{2}{1}{figure.1}}}
\@writefile{brf}{\backcite{rosch1976basic,berg2013poof,chai2013symbiotic,maji2014part,zhang2014part,zhang2014fused}{{2}{1}{figure.1}}}
\@writefile{brf}{\backcite{wah2011caltech,maji2013fine}{{2}{1}{figure.1}}}
\@writefile{brf}{\backcite{wah2011caltech}{{2}{1}{figure.1}}}
\@writefile{toc}{\contentsline {section}{\numberline {2}\hskip -1em.\nobreakspace  {}Related Work}{2}{section.2}}
\newlabel{sec:relatedwork}{{2}{2}{\hskip -1em.~Related Work\relax }{section.2}{}}
\@writefile{brf}{\backcite{bo2010kernel,sanchez2011fisher,krizhevsky2012imagenet,szegedy2014going,simonyan2014very}{{2}{2}{section.2}}}
\@writefile{brf}{\backcite{branson2014bird,gavves2015local}{{2}{2}{section.2}}}
\@writefile{brf}{\backcite{berg2013poof,zhang2014panda,maji2014part,zhang2014part,gkioxari2015actions,zhu2015deepm}{{2}{2}{section.2}}}
\@writefile{brf}{\backcite{branson2010visual,deng2013fine,wah2014similarity}{{2}{2}{section.2}}}
\@writefile{brf}{\backcite{zhang2014part}{{2}{2}{section.2}}}
\@writefile{brf}{\backcite{lin2015bilinear}{{2}{2}{section.2}}}
\@writefile{brf}{\backcite{zhang2014part}{{2}{2}{section.2}}}
\@writefile{brf}{\backcite{zhang2014part}{{2}{2}{section.2}}}
\@writefile{brf}{\backcite{lin2015bilinear}{{2}{2}{section.2}}}
\citation{sermanet2013overfeat}
\citation{long2015fully}
\citation{tompson2014joint}
\citation{jia2014caffe}
\citation{krizhevsky2012imagenet}
\citation{zhang2014part}
\citation{long2015fully}
\citation{tompson2014joint}
\citation{matan1995multi}
\@writefile{brf}{\backcite{sermanet2013overfeat}{{3}{2}{figure.2}}}
\@writefile{brf}{\backcite{long2015fully}{{3}{2}{figure.2}}}
\@writefile{brf}{\backcite{tompson2014joint}{{3}{2}{figure.2}}}
\@writefile{toc}{\contentsline {section}{\numberline {3}\hskip -1em.\nobreakspace  {}Part-Stacked CNN}{3}{section.3}}
\newlabel{sec:pscnn}{{3}{3}{\hskip -1em.~Part-Stacked CNN\relax }{section.3}{}}
\@writefile{brf}{\backcite{jia2014caffe}{{3}{3}{section.3}}}
\@writefile{brf}{\backcite{krizhevsky2012imagenet}{{3}{3}{section.3}}}
\@writefile{brf}{\backcite{zhang2014part}{{3}{3}{section.3}}}
\@writefile{toc}{\contentsline {subsection}{\numberline {3.1}\hskip -1em.\nobreakspace  {}Localization Network}{3}{subsection.3.1}}
\newlabel{subsec:localization}{{3.1}{3}{\hskip -1em.~Localization Network\relax }{subsection.3.1}{}}
\@writefile{brf}{\backcite{long2015fully}{{3}{3.1}{subsection.3.1}}}
\@writefile{brf}{\backcite{tompson2014joint}{{3}{3.1}{subsection.3.1}}}
\@writefile{brf}{\backcite{matan1995multi}{{3}{3.1}{subsection.3.1}}}
\@writefile{lof}{\contentsline {figure}{\numberline {3}{\ignorespaces Demonstration of the localization network. Training process is denoted inside the dashed box. For inference, a Gaussian kernel is then introduced to remove noise. The results are $M$ 2D part locations in the $27\times 27$ \textit  {conv5} feature map.}}{3}{figure.3}}
\newlabel{fig:fcn}{{3}{3}{Demonstration of the localization network. Training process is denoted inside the dashed box. For inference, a Gaussian kernel is then introduced to remove noise. The results are $M$ 2D part locations in the $27\times 27$ \textit {conv5} feature map}{figure.3}{}}
\citation{zhang2014part}
\citation{zhang2014part}
\@writefile{lof}{\contentsline {figure}{\numberline {2}{\ignorespaces Network architecture of the proposed Part-Stacked CNN model. The model consists of: 1) a fully convolutional network for part landmark localization; 2) a part stream where multiple parts share the same feature extraction procedure, while being separated by a novel part crop layer given detected part locations; 3) an object stream with lower spatial-resolution input images to capture bounding-box level supervision; and 4) three fully connected layers to achieve the final classification results based on a concatenated feature map containing information from all parts and the bounding box.}}{4}{figure.2}}
\newlabel{fig:architecture}{{2}{4}{Network architecture of the proposed Part-Stacked CNN model. The model consists of: 1) a fully convolutional network for part landmark localization; 2) a part stream where multiple parts share the same feature extraction procedure, while being separated by a novel part crop layer given detected part locations; 3) an object stream with lower spatial-resolution input images to capture bounding-box level supervision; and 4) three fully connected layers to achieve the final classification results based on a concatenated feature map containing information from all parts and the bounding box}{figure.2}{}}
\newlabel{eqn:fcnloss}{{1}{4}{\hskip -1em.~Localization Network\relax }{equation.3.1}{}}
\@writefile{toc}{\contentsline {subsection}{\numberline {3.2}\hskip -1em.\nobreakspace  {}Classification network}{4}{subsection.3.2}}
\newlabel{subsec:classification}{{3.2}{4}{\hskip -1em.~Classification network\relax }{subsection.3.2}{}}
\citation{felzenszwalb2010object}
\citation{wah2011caltech}
\@writefile{brf}{\backcite{zhang2014part}{{5}{3.2}{subsection.3.2}}}
\@writefile{brf}{\backcite{zhang2014part}{{5}{3.2}{subsection.3.2}}}
\@writefile{brf}{\backcite{felzenszwalb2010object}{{5}{3.2}{subsection.3.2}}}
\@writefile{toc}{\contentsline {section}{\numberline {4}\hskip -1em.\nobreakspace  {}Experiments}{5}{section.4}}
\newlabel{sec:exp}{{4}{5}{\hskip -1em.~Experiments\relax }{section.4}{}}
\citation{jia2014caffe}
\citation{yang2013articulated}
\citation{long2014convnets}
\@writefile{lot}{\contentsline {table}{\numberline {1}{\ignorespaces \emph  {APK} for each object part in the CUB-200-2011 test set in descending order.}}{6}{table.1}}
\newlabel{tab:locapk}{{1}{6}{\emph {APK} for each object part in the CUB-200-2011 test set in descending order}{table.1}{}}
\@writefile{lof}{\contentsline {figure}{\numberline {4}{\ignorespaces Typical localization results on CUB-200-2011 test set. We show 6 of the 15 detected parts here. They are: beak (red), belly (green), crown (blue), right eye (yellow), right leg (magenta), tail (cyan). Better viewed in color.}}{6}{figure.4}}
\newlabel{fig:loc}{{4}{6}{Typical localization results on CUB-200-2011 test set. We show 6 of the 15 detected parts here. They are: beak (red), belly (green), crown (blue), right eye (yellow), right leg (magenta), tail (cyan). Better viewed in color}{figure.4}{}}
\@writefile{toc}{\contentsline {subsection}{\numberline {4.1}\hskip -1em.\nobreakspace  {}Dataset and implementation details}{6}{subsection.4.1}}
\@writefile{brf}{\backcite{wah2011caltech}{{6}{4.1}{subsection.4.1}}}
\@writefile{brf}{\backcite{jia2014caffe}{{6}{4.1}{subsection.4.1}}}
\@writefile{toc}{\contentsline {subsection}{\numberline {4.2}\hskip -1em.\nobreakspace  {}Localization results}{6}{subsection.4.2}}
\@writefile{brf}{\backcite{yang2013articulated}{{6}{4.2}{subsection.4.2}}}
\@writefile{brf}{\backcite{long2014convnets}{{6}{4.2}{subsection.4.2}}}
\@writefile{toc}{\contentsline {subsection}{\numberline {4.3}\hskip -1em.\nobreakspace  {}Classification results}{6}{subsection.4.3}}
\citation{zhang2014part}
\citation{lin2015bilinear}
\citation{lin2015deep}
\citation{shih2015part}
\citation{zhang2014part}
\citation{simon2015neural}
\citation{xiao2015application}
\citation{lin2015bilinear}
\citation{zhang2015weakly}
\citation{razavian2014cnn}
\citation{gavves2013fine}
\citation{krause2015fine}
\citation{lin2015bilinear}
\citation{zhang2014part}
\citation{branson2014bird}
\citation{berg2013poof}
\citation{donahue2013decaf}
\citation{lin2015deep}
\citation{shih2015part}
\citation{zhang2014part}
\citation{lin2015bilinear}
\citation{lin2015bilinear}
\citation{berg2013poof}
\@writefile{lot}{\contentsline {table}{\numberline {2}{\ignorespaces The effect of increasing the number of object parts on the classification accuracy.}}{7}{table.2}}
\newlabel{tab:increm}{{2}{7}{The effect of increasing the number of object parts on the classification accuracy}{table.2}{}}
\@writefile{brf}{\backcite{zhang2014part}{{7}{4.3}{table.2}}}
\@writefile{brf}{\backcite{lin2015bilinear,lin2015deep,shih2015part}{{7}{4.3}{table.2}}}
\@writefile{brf}{\backcite{zhang2014part}{{7}{4.3}{table.2}}}
\@writefile{toc}{\contentsline {subsection}{\numberline {4.4}\hskip -1em.\nobreakspace  {}Model interpretation}{7}{subsection.4.4}}
\@writefile{brf}{\backcite{simon2015neural}{{7}{4.3}{table.2}}}
\@writefile{brf}{\backcite{xiao2015application}{{7}{4.3}{table.2}}}
\@writefile{brf}{\backcite{lin2015bilinear}{{7}{4.3}{table.2}}}
\@writefile{brf}{\backcite{zhang2015weakly}{{7}{4.3}{table.2}}}
\@writefile{brf}{\backcite{razavian2014cnn}{{7}{4.3}{table.2}}}
\@writefile{brf}{\backcite{gavves2013fine}{{7}{4.3}{table.2}}}
\@writefile{brf}{\backcite{krause2015fine}{{7}{4.3}{table.2}}}
\@writefile{brf}{\backcite{lin2015bilinear}{{7}{4.3}{table.2}}}
\@writefile{brf}{\backcite{zhang2014part}{{7}{4.3}{table.2}}}
\@writefile{brf}{\backcite{branson2014bird}{{7}{4.3}{table.2}}}
\@writefile{brf}{\backcite{berg2013poof}{{7}{4.3}{table.2}}}
\@writefile{brf}{\backcite{donahue2013decaf}{{7}{4.3}{table.2}}}
\@writefile{brf}{\backcite{lin2015deep}{{7}{4.3}{table.2}}}
\@writefile{brf}{\backcite{shih2015part}{{7}{4.3}{table.2}}}
\@writefile{brf}{\backcite{zhang2014part}{{7}{4.3}{table.2}}}
\@writefile{lot}{\contentsline {table}{\numberline {3}{\ignorespaces Comparison with state-of-the-art methods on the CUB-200-2011 dataset. To conduct fair comparisons, for all the methods using deep features, we report their results on the standard seven-layer architecture (mostly \textit  {ALexNet} except \textit  {VGG-m} for \cite  {lin2015bilinear}) if possible. Note that our method achieves comparable results with state-of-the-art while running in real-time.}}{7}{table.3}}
\@writefile{brf}{\backcite{lin2015bilinear}{{7}{3}{table.3}}}
\newlabel{tab:cls}{{3}{7}{Comparison with state-of-the-art methods on the CUB-200-2011 dataset. To conduct fair comparisons, for all the methods using deep features, we report their results on the standard seven-layer architecture (mostly \textit {ALexNet} except \textit {VGG-m} for \cite {lin2015bilinear}) if possible. Note that our method achieves comparable results with state-of-the-art while running in real-time}{table.3}{}}
\@writefile{brf}{\backcite{berg2013poof}{{7}{4.4}{subsection.4.4}}}
\citation{krause2015fine}
\citation{kiapour2015where}
\bibstyle{ieee}
\bibdata{egbib}
\bibcite{angelova2013image}{1}
\@writefile{lof}{\contentsline {figure}{\numberline {5}{\ignorespaces Example of the prediction manual generated by the proposed approach. Given a test image, the system reports its predicted class label with some typical exemplar images. Part-based comparison criteria between the predicted class and its most similar classes are shown in the right part of the image. The number in brackets shows the confidence of classifying two categories by introducing a specific part. We present top three object parts for each pair of comparison. For each of the parts, three part-center-cropped patches are shown for the predicted class (upper rows) and the compared class (lower rows) respectively.}}{8}{figure.5}}
\newlabel{fig:interpret}{{5}{8}{Example of the prediction manual generated by the proposed approach. Given a test image, the system reports its predicted class label with some typical exemplar images. Part-based comparison criteria between the predicted class and its most similar classes are shown in the right part of the image. The number in brackets shows the confidence of classifying two categories by introducing a specific part. We present top three object parts for each pair of comparison. For each of the parts, three part-center-cropped patches are shown for the predicted class (upper rows) and the compared class (lower rows) respectively}{figure.5}{}}
\@writefile{toc}{\contentsline {section}{\numberline {5}\hskip -1em.\nobreakspace  {}Conclusion}{8}{section.5}}
\newlabel{sec:conclusion}{{5}{8}{\hskip -1em.~Conclusion\relax }{section.5}{}}
\@writefile{brf}{\backcite{krause2015fine}{{8}{5}{section.5}}}
\@writefile{brf}{\backcite{kiapour2015where}{{8}{5}{section.5}}}
\bibcite{berg2013poof}{2}
\bibcite{berg2013you}{3}
\bibcite{berg2014birdsnap}{4}
\bibcite{bo2010kernel}{5}
\bibcite{branson2014bird}{6}
\bibcite{branson2014ignorant}{7}
\bibcite{branson2010visual}{8}
\bibcite{chai2013symbiotic}{9}
\bibcite{deng2013fine}{10}
\bibcite{donahue2013decaf}{11}
\bibcite{felzenszwalb2010object}{12}
\bibcite{gavves2013fine}{13}
\bibcite{gavves2015local}{14}
\bibcite{gkioxari2015actions}{15}
\bibcite{jia2014caffe}{16}
\bibcite{khosla2011novel}{17}
\bibcite{krause2015fine}{18}
\bibcite{krizhevsky2012imagenet}{19}
\bibcite{kumar2012leafsnap}{20}
\bibcite{lin2015deep}{21}
\bibcite{lin2015bilinear}{22}
\bibcite{long2015fully}{23}
\bibcite{long2014convnets}{24}
\bibcite{kiapour2015where}{25}
\bibcite{maji2013fine}{26}
\bibcite{maji2014part}{27}
\bibcite{matan1995multi}{28}
\bibcite{nilsback2008automated}{29}
\bibcite{parkhi2012cats}{30}
\bibcite{razavian2014cnn}{31}
\bibcite{rosch1976basic}{32}
\bibcite{sanchez2011fisher}{33}
\bibcite{sermanet2013overfeat}{34}
\bibcite{shih2015part}{35}
\bibcite{simon2015neural}{36}
\bibcite{simonyan2014very}{37}
\bibcite{stark2011fine}{38}
\bibcite{szegedy2014going}{39}
\bibcite{tompson2014joint}{40}
\bibcite{van2015building}{41}
\bibcite{vedaldi2014understanding}{42}
\bibcite{wah2011multiclass}{43}
\bibcite{wah2011caltech}{44}
\bibcite{wah2014similarity}{45}
\bibcite{wang2015multiple}{46}
\bibcite{welinder2010caltech}{47}
\bibcite{xiao2015application}{48}
\bibcite{xu2015augmenting}{49}
\bibcite{yang2013articulated}{50}
\bibcite{zhang2014part}{51}
\bibcite{zhang2014panda}{52}
\bibcite{zhang2014fused}{53}
\bibcite{zhang2015weakly}{54}
\bibcite{zhu2015deepm}{55}
