\relax 
\ifx\hyper@anchor\@undefined
\global \let \oldcontentsline\contentsline
\gdef \contentsline#1#2#3#4{\oldcontentsline{#1}{#2}{#3}}
\global \let \oldnewlabel\newlabel
\gdef \newlabel#1#2{\newlabelxx{#1}#2}
\gdef \newlabelxx#1#2#3#4#5#6{\oldnewlabel{#1}{{#2}{#3}}}
\AtEndDocument{\let \contentsline\oldcontentsline
\let \newlabel\oldnewlabel}
\else
\global \let \hyper@last\relax 
\fi

\citation{welinder2010caltech}
\citation{wah2011caltech}
\citation{berg2014birdsnap}
\citation{khosla2011novel}
\citation{parkhi2012cats}
\citation{nilsback2008automated}
\citation{angelova2013image}
\citation{stark2011fine}
\citation{maji2013fine}
\citation{wah2011multiclass}
\citation{berg2014birdsnap}
\citation{vedaldi2014understanding}
\citation{krause2015fine}
\citation{xu2015augmenting}
\citation{deng2013fine}
\citation{chai2013symbiotic}
\citation{branson2014bird}
\citation{lin2015bilinear}
\citation{xiao2014application}
\citation{simon2015neural}
\citation{lin2015bilinear}
\citation{wah2011multiclass}
\citation{deng2013fine}
\citation{rosch1976basic}
\citation{berg2013poof}
\citation{chai2013symbiotic}
\citation{maji2014part}
\citation{zhang2014part}
\citation{wah2011caltech}
\citation{zhang2014part}
\citation{felzenszwalb2010object}
\@writefile{toc}{\contentsline {section}{\numberline {1}\hskip -1em.\nobreakspace  {}Introduction}{1}{section.1}}
\newlabel{sec:intro}{{1}{1}{\hskip -1em.~Introduction\relax }{section.1}{}}
\@writefile{brf}{\backcite{welinder2010caltech,wah2011caltech,berg2014birdsnap}{{1}{1}{section.1}}}
\@writefile{brf}{\backcite{khosla2011novel,parkhi2012cats}{{1}{1}{section.1}}}
\@writefile{brf}{\backcite{nilsback2008automated,angelova2013image}{{1}{1}{section.1}}}
\@writefile{brf}{\backcite{stark2011fine,maji2013fine}{{1}{1}{section.1}}}
\@writefile{brf}{\backcite{wah2011multiclass,berg2014birdsnap,vedaldi2014understanding,krause2015fine,xu2015augmenting}{{1}{1}{section.1}}}
\@writefile{brf}{\backcite{deng2013fine,chai2013symbiotic,branson2014bird,lin2015bilinear}{{1}{1}{section.1}}}
\@writefile{brf}{\backcite{xiao2014application,simon2015neural,lin2015bilinear}{{1}{1}{section.1}}}
\@writefile{brf}{\backcite{wah2011multiclass,deng2013fine}{{1}{1}{section.1}}}
\@writefile{brf}{\backcite{rosch1976basic,berg2013poof,chai2013symbiotic,maji2014part,zhang2014part}{{1}{1}{section.1}}}
\@writefile{brf}{\backcite{wah2011caltech}{{1}{1}{section.1}}}
\@writefile{brf}{\backcite{zhang2014part}{{1}{1}{section.1}}}
\citation{wah2011caltech}
\citation{bo2010kernel}
\citation{sanchez2011fisher}
\citation{krizhevsky2012imagenet}
\citation{szegedy2014going}
\citation{simonyan2014very}
\citation{branson2014bird}
\citation{gavves2014local}
\citation{berg2013poof}
\citation{maji2014part}
\citation{zhang2014part}
\citation{berg2013poof}
\citation{zhang2014part}
\citation{wah2011caltech}
\citation{parkhi2012cats}
\citation{maji2013fine}
\citation{vedaldi2014understanding}
\citation{xiao2014application}
\citation{simon2015neural}
\citation{krause2015fine}
\citation{lin2015bilinear}
\citation{branson2010visual}
\citation{deng2013fine}
\citation{wah2014similarity}
\citation{zhang2014part}
\citation{lin2015bilinear}
\citation{zhang2014part}
\citation{lin2015bilinear}
\citation{sermanet2013overfeat}
\citation{long2015fully}
\citation{tompson2014joint}
\citation{ren2015faster}
\@writefile{brf}{\backcite{felzenszwalb2010object}{{2}{1}{section.1}}}
\@writefile{brf}{\backcite{wah2011caltech}{{2}{1}{section.1}}}
\@writefile{toc}{\contentsline {section}{\numberline {2}\hskip -1em.\nobreakspace  {}Related Work}{2}{section.2}}
\newlabel{sec:relatedwork}{{2}{2}{\hskip -1em.~Related Work\relax }{section.2}{}}
\@writefile{brf}{\backcite{bo2010kernel,sanchez2011fisher,krizhevsky2012imagenet,szegedy2014going,simonyan2014very}{{2}{2}{section.2}}}
\@writefile{brf}{\backcite{branson2014bird,gavves2014local}{{2}{2}{section.2}}}
\@writefile{brf}{\backcite{berg2013poof,maji2014part,zhang2014part}{{2}{2}{section.2}}}
\@writefile{brf}{\backcite{berg2013poof,zhang2014part}{{2}{2}{section.2}}}
\@writefile{brf}{\backcite{wah2011caltech,parkhi2012cats,maji2013fine,vedaldi2014understanding}{{2}{2}{section.2}}}
\@writefile{brf}{\backcite{xiao2014application,simon2015neural,krause2015fine,lin2015bilinear}{{2}{2}{section.2}}}
\@writefile{brf}{\backcite{branson2010visual,deng2013fine,wah2014similarity}{{2}{2}{section.2}}}
\@writefile{brf}{\backcite{zhang2014part}{{2}{2}{section.2}}}
\@writefile{brf}{\backcite{lin2015bilinear}{{2}{2}{section.2}}}
\@writefile{brf}{\backcite{zhang2014part}{{2}{2}{section.2}}}
\@writefile{brf}{\backcite{lin2015bilinear}{{2}{2}{section.2}}}
\@writefile{brf}{\backcite{sermanet2013overfeat}{{2}{2}{figure.1}}}
\@writefile{brf}{\backcite{long2015fully}{{2}{2}{figure.1}}}
\@writefile{brf}{\backcite{tompson2014joint}{{2}{2}{figure.1}}}
\citation{jia2014caffe}
\citation{krizhevsky2012imagenet}
\citation{girshick2014rich}
\citation{zhang2014part}
\citation{long2015fully}
\citation{tompson2014joint}
\citation{matan1995multi}
\@writefile{lof}{\contentsline {figure}{\numberline {1}{\ignorespaces Network architecture of the proposed Part-Stacked CNN model. The model consists of a fully convolutional network for part detection and a two-stream network for object classification. The input of the part stream is of twice the spatial resolution relative to the object stream. Multiple parts share the same feature extraction procedure, while being separated by a novel part crop layer to employ localization results. After conducting a dimension reduction layer, feature maps of all object parts and the bounding box are concatenated, following by three fully connected layers.}}{3}{figure.1}}
\newlabel{fig:architecture}{{1}{3}{Network architecture of the proposed Part-Stacked CNN model. The model consists of a fully convolutional network for part detection and a two-stream network for object classification. The input of the part stream is of twice the spatial resolution relative to the object stream. Multiple parts share the same feature extraction procedure, while being separated by a novel part crop layer to employ localization results. After conducting a dimension reduction layer, feature maps of all object parts and the bounding box are concatenated, following by three fully connected layers}{figure.1}{}}
\@writefile{brf}{\backcite{ren2015faster}{{3}{2}{figure.1}}}
\@writefile{toc}{\contentsline {section}{\numberline {3}\hskip -1em.\nobreakspace  {}Part-Stacked CNN}{3}{section.3}}
\newlabel{sec:pscnn}{{3}{3}{\hskip -1em.~Part-Stacked CNN\relax }{section.3}{}}
\@writefile{brf}{\backcite{jia2014caffe}{{3}{3}{section.3}}}
\@writefile{brf}{\backcite{krizhevsky2012imagenet}{{3}{3}{section.3}}}
\@writefile{toc}{\contentsline {subsection}{\numberline {3.1}\hskip -1em.\nobreakspace  {}Localization Network}{3}{subsection.3.1}}
\newlabel{subsec:localization}{{3.1}{3}{\hskip -1em.~Localization Network\relax }{subsection.3.1}{}}
\@writefile{brf}{\backcite{girshick2014rich}{{3}{3.1}{subsection.3.1}}}
\@writefile{brf}{\backcite{zhang2014part}{{3}{3.1}{subsection.3.1}}}
\@writefile{brf}{\backcite{long2015fully}{{3}{3.1}{subsection.3.1}}}
\@writefile{brf}{\backcite{tompson2014joint}{{3}{3.1}{subsection.3.1}}}
\@writefile{brf}{\backcite{matan1995multi}{{3}{3.1}{subsection.3.1}}}
\@writefile{lof}{\contentsline {figure}{\numberline {2}{\ignorespaces Demonstration of the localization network. }}{4}{figure.2}}
\newlabel{fig:fcn}{{2}{4}{Demonstration of the localization network}{figure.2}{}}
\newlabel{eqn:fcnloss}{{1}{4}{\hskip -1em.~Localization Network\relax }{equation.3.1}{}}
\citation{zhang2014part}
\citation{zhang2014part}
\citation{felzenszwalb2010object}
\@writefile{toc}{\contentsline {subsection}{\numberline {3.2}\hskip -1em.\nobreakspace  {}Classification network}{5}{subsection.3.2}}
\newlabel{subsec:classification}{{3.2}{5}{\hskip -1em.~Classification network\relax }{subsection.3.2}{}}
\@writefile{brf}{\backcite{zhang2014part}{{5}{3.2}{subsection.3.2}}}
\@writefile{brf}{\backcite{zhang2014part}{{5}{3.2}{subsection.3.2}}}
\@writefile{lof}{\contentsline {figure}{\numberline {3}{\ignorespaces Demonstration of the part crop layer with 3 object parts.}}{5}{figure.3}}
\newlabel{fig:partcrop}{{3}{5}{Demonstration of the part crop layer with 3 object parts}{figure.3}{}}
\newlabel{eqn:fcnloss}{{2}{5}{\hskip -1em.~Classification network\relax }{equation.3.2}{}}
\@writefile{brf}{\backcite{felzenszwalb2010object}{{5}{3.2}{equation.3.2}}}
\citation{wah2011caltech}
\citation{jia2014caffe}
\citation{yang2013articulated}
\citation{long2014convnets}
\bibstyle{ieee}
\bibdata{egbib}
\bibcite{angelova2013image}{1}
\@writefile{toc}{\contentsline {section}{\numberline {4}\hskip -1em.\nobreakspace  {}Experiments}{6}{section.4}}
\newlabel{sec:exp}{{4}{6}{\hskip -1em.~Experiments\relax }{section.4}{}}
\@writefile{toc}{\contentsline {subsection}{\numberline {4.1}\hskip -1em.\nobreakspace  {}Dataset and implementation details}{6}{subsection.4.1}}
\@writefile{brf}{\backcite{wah2011caltech}{{6}{4.1}{subsection.4.1}}}
\@writefile{brf}{\backcite{jia2014caffe}{{6}{4.1}{subsection.4.1}}}
\@writefile{toc}{\contentsline {subsection}{\numberline {4.2}\hskip -1em.\nobreakspace  {}Localization results}{6}{subsection.4.2}}
\@writefile{lot}{\contentsline {table}{\numberline {1}{\ignorespaces Comparison of different model architectures on localization results. ``conv5'' stands for the first 5 convolutional layers in CaffeNet; conv6(256) stands for the additional $1\times 1$ convolutional layer with 256 output channels; ``cls'' denotes the classification layer with $M+1$ output channels; ``gaussian'' represents a gaussian kernel for smoothing.}}{6}{table.1}}
\newlabel{tab:locarc}{{1}{6}{Comparison of different model architectures on localization results. ``conv5'' stands for the first 5 convolutional layers in CaffeNet; conv6(256) stands for the additional $1\times 1$ convolutional layer with 256 output channels; ``cls'' denotes the classification layer with $M+1$ output channels; ``gaussian'' represents a gaussian kernel for smoothing}{table.1}{}}
\@writefile{brf}{\backcite{yang2013articulated}{{6}{4.2}{equation.4.3}}}
\@writefile{brf}{\backcite{long2014convnets}{{6}{4.2}{equation.4.3}}}
\@writefile{toc}{\contentsline {subsection}{\numberline {4.3}\hskip -1em.\nobreakspace  {}Classification results}{6}{subsection.4.3}}
\@writefile{toc}{\contentsline {subsection}{\numberline {4.4}\hskip -1em.\nobreakspace  {}Model interpretation}{6}{subsection.4.4}}
\bibcite{berg2013poof}{2}
\bibcite{berg2014birdsnap}{3}
\bibcite{bo2010kernel}{4}
\bibcite{branson2014bird}{5}
\bibcite{branson2010visual}{6}
\bibcite{chai2013symbiotic}{7}
\bibcite{deng2013fine}{8}
\bibcite{felzenszwalb2010object}{9}
\bibcite{gavves2014local}{10}
\bibcite{girshick2014rich}{11}
\bibcite{jia2014caffe}{12}
\bibcite{khosla2011novel}{13}
\@writefile{lot}{\contentsline {table}{\numberline {2}{\ignorespaces \emph  {APK} for each object part in the CUB-200-2011 test set in descent order.}}{7}{table.2}}
\newlabel{tab:locapk}{{2}{7}{\emph {APK} for each object part in the CUB-200-2011 test set in descent order}{table.2}{}}
\@writefile{lof}{\contentsline {figure}{\numberline {4}{\ignorespaces Typical localization results on CUB-200-2011 test set. We show 6 of the 15 detected parts here. They are: beak (red), belly (green), crown (blue), right eye (yellow), right leg (magenta), tail (cyan).}}{7}{figure.4}}
\newlabel{fig:loc}{{4}{7}{Typical localization results on CUB-200-2011 test set. We show 6 of the 15 detected parts here. They are: beak (red), belly (green), crown (blue), right eye (yellow), right leg (magenta), tail (cyan)}{figure.4}{}}
\bibcite{krause2015fine}{14}
\bibcite{krizhevsky2012imagenet}{15}
\bibcite{lin2015bilinear}{16}
\bibcite{long2015fully}{17}
\bibcite{long2014convnets}{18}
\bibcite{maji2013fine}{19}
\bibcite{maji2014part}{20}
\bibcite{matan1995multi}{21}
\bibcite{nilsback2008automated}{22}
\bibcite{parkhi2012cats}{23}
\bibcite{ren2015faster}{24}
\bibcite{rosch1976basic}{25}
\bibcite{sanchez2011fisher}{26}
\bibcite{sermanet2013overfeat}{27}
\bibcite{simon2015neural}{28}
\bibcite{simonyan2014very}{29}
\bibcite{stark2011fine}{30}
\bibcite{szegedy2014going}{31}
\bibcite{tompson2014joint}{32}
\bibcite{vedaldi2014understanding}{33}
\bibcite{wah2011multiclass}{34}
\bibcite{wah2011caltech}{35}
\bibcite{wah2014similarity}{36}
\bibcite{welinder2010caltech}{37}
\bibcite{xiao2014application}{38}
\bibcite{xu2015augmenting}{39}
\bibcite{yang2013articulated}{40}
\bibcite{zhang2014part}{41}
