\relax 
\ifx\hyper@anchor\@undefined
\global \let \oldcontentsline\contentsline
\gdef \contentsline#1#2#3#4{\oldcontentsline{#1}{#2}{#3}}
\global \let \oldnewlabel\newlabel
\gdef \newlabel#1#2{\newlabelxx{#1}#2}
\gdef \newlabelxx#1#2#3#4#5#6{\oldnewlabel{#1}{{#2}{#3}}}
\AtEndDocument{\let \contentsline\oldcontentsline
\let \newlabel\oldnewlabel}
\else
\global \let \hyper@last\relax 
\fi

\citation{welinder2010caltech}
\citation{wah2011caltech}
\citation{berg2014birdsnap}
\citation{khosla2011novel}
\citation{parkhi2012cats}
\citation{nilsback2008automated}
\citation{angelova2013image}
\citation{stark2011fine}
\citation{maji2013fine}
\citation{wah2011multiclass}
\citation{berg2014birdsnap}
\citation{vedaldi2014understanding}
\citation{krause2015fine}
\citation{xu2015augmenting}
\citation{deng2013fine}
\citation{chai2013symbiotic}
\citation{branson2014bird}
\citation{lin2015bilinear}
\citation{berg2013poof}
\citation{berg2013you}
\citation{berg2014birdsnap}
\citation{kumar2012leafsnap}
\citation{branson2014ignorant}
\citation{van2015building}
\citation{krizhevsky2012imagenet}
\citation{rosch1976basic}
\citation{berg2013poof}
\citation{chai2013symbiotic}
\citation{maji2014part}
\citation{zhang2014part}
\citation{wah2011caltech}
\citation{zhang2014part}
\@writefile{toc}{\contentsline {section}{\numberline {1}\hskip -1em.\nobreakspace  {}Introduction}{1}{section.1}}
\newlabel{sec:intro}{{1}{1}{\hskip -1em.~Introduction\relax }{section.1}{}}
\@writefile{brf}{\backcite{welinder2010caltech,wah2011caltech,berg2014birdsnap}{{1}{1}{section.1}}}
\@writefile{brf}{\backcite{khosla2011novel,parkhi2012cats}{{1}{1}{section.1}}}
\@writefile{brf}{\backcite{nilsback2008automated,angelova2013image}{{1}{1}{section.1}}}
\@writefile{brf}{\backcite{stark2011fine,maji2013fine}{{1}{1}{section.1}}}
\@writefile{brf}{\backcite{wah2011multiclass,berg2014birdsnap,vedaldi2014understanding,krause2015fine,xu2015augmenting}{{1}{1}{section.1}}}
\@writefile{brf}{\backcite{deng2013fine,chai2013symbiotic,branson2014bird,lin2015bilinear}{{1}{1}{section.1}}}
\@writefile{lof}{\contentsline {figure}{\numberline {1}{\ignorespaces Overview of the proposed approach. We propose a Part-Stacked CNN architecture that classifies fine-grained categories by modeling the subtle difference from specific object parts. Beyond classification results, the proposed approach also offers human-understandable instructions on how to classify highly similar object categories explicitly.}}{1}{figure.1}}
\newlabel{fig:architecture}{{1}{1}{Overview of the proposed approach. We propose a Part-Stacked CNN architecture that classifies fine-grained categories by modeling the subtle difference from specific object parts. Beyond classification results, the proposed approach also offers human-understandable instructions on how to classify highly similar object categories explicitly}{figure.1}{}}
\@writefile{brf}{\backcite{berg2013poof,berg2013you,berg2014birdsnap}{{1}{1}{section.1}}}
\@writefile{brf}{\backcite{kumar2012leafsnap,branson2014ignorant,van2015building}{{1}{1}{section.1}}}
\@writefile{brf}{\backcite{krizhevsky2012imagenet}{{1}{1}{section.1}}}
\@writefile{brf}{\backcite{rosch1976basic,berg2013poof,chai2013symbiotic,maji2014part,zhang2014part}{{1}{1}{figure.1}}}
\@writefile{brf}{\backcite{wah2011caltech}{{1}{1}{figure.1}}}
\citation{wah2011caltech}
\citation{bo2010kernel}
\citation{sanchez2011fisher}
\citation{krizhevsky2012imagenet}
\citation{szegedy2014going}
\citation{simonyan2014very}
\citation{branson2014bird}
\citation{gavves2014local}
\citation{berg2013poof}
\citation{zhang2014panda}
\citation{maji2014part}
\citation{zhang2014part}
\citation{gkioxari2014actions}
\citation{branson2010visual}
\citation{deng2013fine}
\citation{wah2014similarity}
\citation{zhang2014part}
\citation{lin2015bilinear}
\citation{zhang2014part}
\citation{zhang2014part}
\citation{lin2015bilinear}
\citation{sermanet2013overfeat}
\citation{long2015fully}
\citation{tompson2014joint}
\citation{ren2015faster}
\@writefile{brf}{\backcite{zhang2014part}{{2}{1}{figure.1}}}
\@writefile{brf}{\backcite{wah2011caltech}{{2}{1}{figure.1}}}
\@writefile{toc}{\contentsline {section}{\numberline {2}\hskip -1em.\nobreakspace  {}Related Work}{2}{section.2}}
\newlabel{sec:relatedwork}{{2}{2}{\hskip -1em.~Related Work\relax }{section.2}{}}
\@writefile{brf}{\backcite{bo2010kernel,sanchez2011fisher,krizhevsky2012imagenet,szegedy2014going,simonyan2014very}{{2}{2}{section.2}}}
\@writefile{brf}{\backcite{branson2014bird,gavves2014local}{{2}{2}{section.2}}}
\@writefile{brf}{\backcite{berg2013poof,zhang2014panda,maji2014part,zhang2014part,gkioxari2014actions}{{2}{2}{section.2}}}
\@writefile{brf}{\backcite{branson2010visual,deng2013fine,wah2014similarity}{{2}{2}{section.2}}}
\@writefile{brf}{\backcite{zhang2014part}{{2}{2}{section.2}}}
\@writefile{brf}{\backcite{lin2015bilinear}{{2}{2}{section.2}}}
\@writefile{brf}{\backcite{zhang2014part}{{2}{2}{section.2}}}
\@writefile{brf}{\backcite{zhang2014part}{{2}{2}{section.2}}}
\@writefile{brf}{\backcite{lin2015bilinear}{{2}{2}{section.2}}}
\@writefile{brf}{\backcite{sermanet2013overfeat}{{2}{2}{figure.2}}}
\@writefile{brf}{\backcite{long2015fully}{{2}{2}{figure.2}}}
\@writefile{brf}{\backcite{tompson2014joint}{{2}{2}{figure.2}}}
\citation{jia2014caffe}
\citation{krizhevsky2012imagenet}
\citation{girshick2014rich}
\citation{zhang2014part}
\citation{long2015fully}
\citation{tompson2014joint}
\citation{matan1995multi}
\@writefile{lof}{\contentsline {figure}{\numberline {2}{\ignorespaces Network architecture of the proposed Part-Stacked CNN model. The model consists of a fully convolutional network for part detection and a two-stream network for object classification. The input of the part stream is of twice the spatial resolution relative to the object stream. Multiple parts share the same feature extraction procedure, while being separated by a novel part crop layer given detected part locations. After conducting a dimension reduction layer, feature maps of all object parts and the bounding box are concatenated, following by three fully connected layers to achieve the final classification results.}}{3}{figure.2}}
\newlabel{fig:architecture}{{2}{3}{Network architecture of the proposed Part-Stacked CNN model. The model consists of a fully convolutional network for part detection and a two-stream network for object classification. The input of the part stream is of twice the spatial resolution relative to the object stream. Multiple parts share the same feature extraction procedure, while being separated by a novel part crop layer given detected part locations. After conducting a dimension reduction layer, feature maps of all object parts and the bounding box are concatenated, following by three fully connected layers to achieve the final classification results}{figure.2}{}}
\@writefile{brf}{\backcite{ren2015faster}{{3}{2}{figure.2}}}
\@writefile{toc}{\contentsline {section}{\numberline {3}\hskip -1em.\nobreakspace  {}Part-Stacked CNN}{3}{section.3}}
\newlabel{sec:pscnn}{{3}{3}{\hskip -1em.~Part-Stacked CNN\relax }{section.3}{}}
\@writefile{brf}{\backcite{jia2014caffe}{{3}{3}{section.3}}}
\@writefile{brf}{\backcite{krizhevsky2012imagenet}{{3}{3}{section.3}}}
\@writefile{toc}{\contentsline {subsection}{\numberline {3.1}\hskip -1em.\nobreakspace  {}Localization Network}{3}{subsection.3.1}}
\newlabel{subsec:localization}{{3.1}{3}{\hskip -1em.~Localization Network\relax }{subsection.3.1}{}}
\@writefile{brf}{\backcite{girshick2014rich}{{3}{3.1}{subsection.3.1}}}
\@writefile{brf}{\backcite{zhang2014part}{{3}{3.1}{subsection.3.1}}}
\@writefile{brf}{\backcite{long2015fully}{{3}{3.1}{subsection.3.1}}}
\@writefile{brf}{\backcite{tompson2014joint}{{3}{3.1}{subsection.3.1}}}
\@writefile{brf}{\backcite{matan1995multi}{{3}{3.1}{subsection.3.1}}}
\@writefile{lof}{\contentsline {figure}{\numberline {3}{\ignorespaces Demonstration of the localization network. Training process is denoted inside the dashed box. For inference, a Gaussian kernel is then introduced to remove noise. The results are $M$ 2D part locations in the $27\times 27$ \textit  {conv5} feature map.}}{4}{figure.3}}
\newlabel{fig:fcn}{{3}{4}{Demonstration of the localization network. Training process is denoted inside the dashed box. For inference, a Gaussian kernel is then introduced to remove noise. The results are $M$ 2D part locations in the $27\times 27$ \textit {conv5} feature map}{figure.3}{}}
\newlabel{eqn:fcnloss}{{1}{4}{\hskip -1em.~Localization Network\relax }{equation.3.1}{}}
\citation{zhang2014part}
\citation{zhang2014part}
\citation{felzenszwalb2010object}
\@writefile{toc}{\contentsline {subsection}{\numberline {3.2}\hskip -1em.\nobreakspace  {}Classification network}{5}{subsection.3.2}}
\newlabel{subsec:classification}{{3.2}{5}{\hskip -1em.~Classification network\relax }{subsection.3.2}{}}
\@writefile{brf}{\backcite{zhang2014part}{{5}{3.2}{subsection.3.2}}}
\@writefile{brf}{\backcite{zhang2014part}{{5}{3.2}{subsection.3.2}}}
\@writefile{lof}{\contentsline {figure}{\numberline {4}{\ignorespaces Demonstration of the part crop layer with three object parts. The input is a $27\times 27$ heatmap and three object part anchor position, and the output is three $6\times 6$ regions centered at the respective anchor position. Image in the left shows the respective field for each part after performing part cropping.}}{5}{figure.4}}
\newlabel{fig:partcrop}{{4}{5}{Demonstration of the part crop layer with three object parts. The input is a $27\times 27$ heatmap and three object part anchor position, and the output is three $6\times 6$ regions centered at the respective anchor position. Image in the left shows the respective field for each part after performing part cropping}{figure.4}{}}
\newlabel{eqn:fcnloss}{{2}{5}{\hskip -1em.~Classification network\relax }{equation.3.2}{}}
\@writefile{brf}{\backcite{felzenszwalb2010object}{{5}{3.2}{equation.3.2}}}
\citation{wah2011caltech}
\citation{jia2014caffe}
\citation{yang2013articulated}
\citation{long2014convnets}
\@writefile{toc}{\contentsline {section}{\numberline {4}\hskip -1em.\nobreakspace  {}Experiments}{6}{section.4}}
\newlabel{sec:exp}{{4}{6}{\hskip -1em.~Experiments\relax }{section.4}{}}
\@writefile{toc}{\contentsline {subsection}{\numberline {4.1}\hskip -1em.\nobreakspace  {}Dataset and implementation details}{6}{subsection.4.1}}
\@writefile{brf}{\backcite{wah2011caltech}{{6}{4.1}{subsection.4.1}}}
\@writefile{brf}{\backcite{jia2014caffe}{{6}{4.1}{subsection.4.1}}}
\@writefile{toc}{\contentsline {subsection}{\numberline {4.2}\hskip -1em.\nobreakspace  {}Localization results}{6}{subsection.4.2}}
\@writefile{lot}{\contentsline {table}{\numberline {1}{\ignorespaces Comparison of different model architectures on localization results. ``conv5'' stands for the first 5 convolutional layers in CaffeNet; ``conv6(256)'' stands for the additional $1\times 1$ convolutional layer with 256 output channels; ``cls'' denotes the classification layer with $M+1$ output channels; ``gaussian'' represents a Gaussian kernel for smoothing.}}{6}{table.1}}
\newlabel{tab:locarc}{{1}{6}{Comparison of different model architectures on localization results. ``conv5'' stands for the first 5 convolutional layers in CaffeNet; ``conv6(256)'' stands for the additional $1\times 1$ convolutional layer with 256 output channels; ``cls'' denotes the classification layer with $M+1$ output channels; ``gaussian'' represents a Gaussian kernel for smoothing}{table.1}{}}
\@writefile{brf}{\backcite{yang2013articulated}{{6}{4.2}{equation.4.3}}}
\@writefile{brf}{\backcite{long2014convnets}{{6}{4.2}{equation.4.3}}}
\@writefile{toc}{\contentsline {subsection}{\numberline {4.3}\hskip -1em.\nobreakspace  {}Classification results}{6}{subsection.4.3}}
\citation{zhang2014part}
\citation{lin2015bilinear}
\citation{zhang2014part}
\citation{gavves2013fine}
\citation{xiao2014application}
\citation{lin2015bilinear}
\citation{chai2013symbiotic}
\citation{razavian2014cnn}
\citation{gavves2013fine}
\citation{krause2015fine}
\citation{lin2015bilinear}
\citation{zhang2014part}
\citation{branson2014bird}
\citation{berg2013poof}
\citation{donahue2013decaf}
\citation{zhang2014part}
\@writefile{lot}{\contentsline {table}{\numberline {2}{\ignorespaces \emph  {APK} for each object part in the CUB-200-2011 test set in descent order.}}{7}{table.2}}
\newlabel{tab:locapk}{{2}{7}{\emph {APK} for each object part in the CUB-200-2011 test set in descent order}{table.2}{}}
\@writefile{lof}{\contentsline {figure}{\numberline {5}{\ignorespaces Typical localization results on CUB-200-2011 test set. We show 6 of the 15 detected parts here. They are: beak (red), belly (green), crown (blue), right eye (yellow), right leg (magenta), tail (cyan).}}{7}{figure.5}}
\newlabel{fig:loc}{{5}{7}{Typical localization results on CUB-200-2011 test set. We show 6 of the 15 detected parts here. They are: beak (red), belly (green), crown (blue), right eye (yellow), right leg (magenta), tail (cyan)}{figure.5}{}}
\@writefile{brf}{\backcite{zhang2014part}{{7}{4.3}{subsection.4.3}}}
\@writefile{brf}{\backcite{lin2015bilinear}{{7}{4.3}{subsection.4.3}}}
\@writefile{brf}{\backcite{zhang2014part}{{7}{4.3}{subsection.4.3}}}
\@writefile{brf}{\backcite{gavves2013fine}{{7}{4.3}{subsection.4.3}}}
\@writefile{brf}{\backcite{xiao2014application}{{7}{4.3}{subsection.4.3}}}
\@writefile{brf}{\backcite{lin2015bilinear}{{7}{4.3}{subsection.4.3}}}
\@writefile{brf}{\backcite{chai2013symbiotic}{{7}{4.3}{subsection.4.3}}}
\@writefile{brf}{\backcite{razavian2014cnn}{{7}{4.3}{subsection.4.3}}}
\@writefile{brf}{\backcite{gavves2013fine}{{7}{4.3}{subsection.4.3}}}
\@writefile{brf}{\backcite{krause2015fine}{{7}{4.3}{subsection.4.3}}}
\@writefile{brf}{\backcite{lin2015bilinear}{{7}{4.3}{subsection.4.3}}}
\@writefile{brf}{\backcite{zhang2014part}{{7}{4.3}{subsection.4.3}}}
\@writefile{brf}{\backcite{branson2014bird}{{7}{4.3}{subsection.4.3}}}
\@writefile{brf}{\backcite{berg2013poof}{{7}{4.3}{subsection.4.3}}}
\@writefile{brf}{\backcite{donahue2013decaf}{{7}{4.3}{subsection.4.3}}}
\@writefile{brf}{\backcite{zhang2014part}{{7}{4.3}{subsection.4.3}}}
\@writefile{lot}{\contentsline {table}{\numberline {3}{\ignorespaces Comparison with state-of-the-art methods of classification accuracy on the CUB-200-2011 dataset. To conduct fair comparisons, for all the methods using deep features, we report their results on the standard seven-layer architecture (AlexNet) if possible.}}{7}{table.3}}
\newlabel{tab:cls}{{3}{7}{Comparison with state-of-the-art methods of classification accuracy on the CUB-200-2011 dataset. To conduct fair comparisons, for all the methods using deep features, we report their results on the standard seven-layer architecture (AlexNet) if possible}{table.3}{}}
\citation{krause2015fine}
\citation{kiapour2015where}
\bibstyle{ieee}
\bibdata{egbib}
\bibcite{angelova2013image}{1}
\bibcite{berg2013you}{2}
\bibcite{berg2013poof}{3}
\bibcite{berg2014birdsnap}{4}
\bibcite{bo2010kernel}{5}
\bibcite{branson2014bird}{6}
\bibcite{branson2014ignorant}{7}
\bibcite{branson2010visual}{8}
\bibcite{chai2013symbiotic}{9}
\bibcite{deng2013fine}{10}
\bibcite{donahue2013decaf}{11}
\bibcite{felzenszwalb2010object}{12}
\bibcite{gavves2013fine}{13}
\bibcite{gavves2014local}{14}
\bibcite{girshick2014rich}{15}
\bibcite{gkioxari2014actions}{16}
\bibcite{jia2014caffe}{17}
\@writefile{toc}{\contentsline {subsection}{\numberline {4.4}\hskip -1em.\nobreakspace  {}Model interpretation}{8}{subsection.4.4}}
\@writefile{toc}{\contentsline {section}{\numberline {5}\hskip -1em.\nobreakspace  {}Discussion}{8}{section.5}}
\newlabel{sub:discussion}{{5}{8}{\hskip -1em.~Discussion\relax }{section.5}{}}
\@writefile{brf}{\backcite{krause2015fine}{{8}{5}{section.5}}}
\@writefile{brf}{\backcite{kiapour2015where}{{8}{5}{section.5}}}
\@writefile{toc}{\contentsline {section}{\numberline {6}\hskip -1em.\nobreakspace  {}Conclusion}{8}{section.6}}
\newlabel{sec:conclusion}{{6}{8}{\hskip -1em.~Conclusion\relax }{section.6}{}}
\bibcite{khosla2011novel}{18}
\bibcite{krause2015fine}{19}
\bibcite{krizhevsky2012imagenet}{20}
\bibcite{kumar2012leafsnap}{21}
\bibcite{lin2015bilinear}{22}
\bibcite{long2015fully}{23}
\bibcite{long2014convnets}{24}
\bibcite{kiapour2015where}{25}
\bibcite{maji2013fine}{26}
\bibcite{maji2014part}{27}
\bibcite{matan1995multi}{28}
\bibcite{nilsback2008automated}{29}
\bibcite{parkhi2012cats}{30}
\bibcite{razavian2014cnn}{31}
\bibcite{ren2015faster}{32}
\bibcite{rosch1976basic}{33}
\bibcite{sanchez2011fisher}{34}
\bibcite{sermanet2013overfeat}{35}
\bibcite{simonyan2014very}{36}
\bibcite{stark2011fine}{37}
\bibcite{szegedy2014going}{38}
\bibcite{tompson2014joint}{39}
\bibcite{van2015building}{40}
\bibcite{vedaldi2014understanding}{41}
\bibcite{wah2011multiclass}{42}
\bibcite{wah2011caltech}{43}
\bibcite{wah2014similarity}{44}
\bibcite{welinder2010caltech}{45}
\bibcite{xiao2014application}{46}
\bibcite{xu2015augmenting}{47}
\bibcite{yang2013articulated}{48}
\bibcite{zhang2014part}{49}
\bibcite{zhang2014panda}{50}
