\relax 
\ifx\hyper@anchor\@undefined
\global \let \oldcontentsline\contentsline
\gdef \contentsline#1#2#3#4{\oldcontentsline{#1}{#2}{#3}}
\global \let \oldnewlabel\newlabel
\gdef \newlabel#1#2{\newlabelxx{#1}#2}
\gdef \newlabelxx#1#2#3#4#5#6{\oldnewlabel{#1}{{#2}{#3}}}
\AtEndDocument{\let \contentsline\oldcontentsline
\let \newlabel\oldnewlabel}
\else
\global \let \hyper@last\relax 
\fi

\citation{berg2013poof}
\@writefile{toc}{\contentsline {section}{\numberline {1}\hskip -1em.\nobreakspace  {}Implementation Details}{1}{section.1}}
\@writefile{toc}{\contentsline {subsection}{\numberline {1.1}\hskip -1em.\nobreakspace  {}Practical tricks for training the model}{1}{subsection.1.1}}
\@writefile{toc}{\contentsline {subsection}{\numberline {1.2}\hskip -1em.\nobreakspace  {}Implementation details for interpretation}{1}{subsection.1.2}}
\bibstyle{ieee}
\bibdata{egbib}
\bibcite{berg2013poof}{1}
\@writefile{toc}{\contentsline {section}{\numberline {2}\hskip -1em.\nobreakspace  {}Per-part classification accuracy}{2}{section.2}}
\@writefile{lof}{\contentsline {figure}{\numberline {1}{\ignorespaces Classification accuracy using each object part only in the CUB-200-2011 test set, sorted in descending order. For reference, we also show the accuracy using bounding-box supervision in the comparison.}}{2}{figure.1}}
\newlabel{fig:accpp}{{1}{2}{Classification accuracy using each object part only in the CUB-200-2011 test set, sorted in descending order. For reference, we also show the accuracy using bounding-box supervision in the comparison}{figure.1}{}}
\@writefile{toc}{\contentsline {section}{\numberline {3}\hskip -1em.\nobreakspace  {}Additional interpretation results}{2}{section.3}}
\@writefile{lof}{\contentsline {figure}{\numberline {2}{\ignorespaces Interpretation example generated by the proposed method.}}{3}{figure.2}}
\newlabel{fig:interp}{{2}{3}{Interpretation example generated by the proposed method}{figure.2}{}}
\@writefile{lot}{\contentsline {table}{\numberline {1}{\ignorespaces ``One-versus-rest'' prediction manuals for some selected categories generated by the proposed method.}}{3}{table.1}}
\newlabel{tab:ovr}{{1}{3}{``One-versus-rest'' prediction manuals for some selected categories generated by the proposed method}{table.1}{}}
\@writefile{lot}{\contentsline {table}{\numberline {2}{\ignorespaces ``One-versus-one'' prediction manuals for some selected pairs of categories generated by the proposed method.}}{4}{table.2}}
\newlabel{tab:ovo}{{2}{4}{``One-versus-one'' prediction manuals for some selected pairs of categories generated by the proposed method}{table.2}{}}
